…
ggplot() +
  geom_sf(data = ttops, aes(color = ttops$hght_95_sd), show.legend = "point", size = 0.05, shape = ".") +
    scale_fill_continuous(palette = "lajolla")
  labs(fill = "Tree Height (95%)")
```

    ## Reading layer `chm_la_ronge' from data source 
    ##   `/media/seamus/USB1/la_ronge/chm_la_ronge.shp' using driver `ESRI Shapefile'
    ## Simple feature collection with 351920 features and 5 fields
    ## Geometry type: POINT
    ## Dimension:     XY
    ## Bounding box:  xmin: 475020.5 ymin: 6102588 xmax: 479998.5 ymax: 6106404
    ## Projected CRS: +proj=utm +zone=13 +ellps=GRS80 +units=m +no_defs

    ## # A tibble: 351,920 × 6
    ##    treeID height crownWidth hght_95 hght_95_sd           geometry
    ##     <int>  <dbl>      <dbl>   <dbl>      <dbl>        <POINT [m]>
    ##  1      1  10.2       1.11     9.66      0.471 (479997.5 6106404)
    ##  2      2  13.0       1.25    12.3       0.736 (479988.5 6106400)
    ##  3      3   7.61      0.980    7.23      0.228 (479978.5 6106396)
    ##  4      4  15.9       1.39    15.1       1.01  (479970.5 6106392)
    ##  5      5  11.2       1.16    10.6       0.568 (479958.5 6106388)
    ##  6      6  10.9       1.15    10.4       0.545 (479970.5 6106388)
    ##  7      7   9.02      1.05     8.57      0.362 (479964.5 6106386)
    ##  8      8   9.02      1.05     8.57      0.362 (479965.5 6106386)
    ##  9      9   3.81      0.790    3.62     -0.133 (479990.5 6106386)
    ## 10     10   3.81      0.790    3.62     -0.133 (479991.5 6106386)
    ## # ℹ 351,910 more rows

    ## # A tibble: 351,920 × 6
    ##    treeID height winRads hght_95 hght_95_sd           geometry
    ##     <int>  <dbl>   <dbl>   <dbl>      <dbl>        <POINT [m]>
    ##  1      1  10.2    1.11     9.66      0.471 (479997.5 6106404)
    ##  2      2  13.0    1.25    12.3       0.736 (479988.5 6106400)
    ##  3      3   7.61   0.980    7.23      0.228 (479978.5 6106396)
    ##  4      4  15.9    1.39    15.1       1.01  (479970.5 6106392)
    ##  5      5  11.2    1.16    10.6       0.568 (479958.5 6106388)
    ##  6      6  10.9    1.15    10.4       0.545 (479970.5 6106388)
    ##  7      7   9.02   1.05     8.57      0.362 (479964.5 6106386)
    ##  8      8   9.02   1.05     8.57      0.362 (479965.5 6106386)
    ##  9      9   3.81   0.790    3.62     -0.133 (479990.5 6106386)
    ## 10     10   3.81   0.790    3.62     -0.133 (479991.5 6106386)
    ## # ℹ 351,910 more rows
…
